…
across(), ça tourne comment?

À la sortie de la mise à jour de dplyr, il avait été signalé que la méthode across() impliquerait peut-être de légères pertes en termes de vitesse d’exécution par rapport aux anciennes méthodes _at, _if et _all. Une partie de ce retard a été apparemment rattrapé dans les dernières mises à jour et donc dans la version 1.0.2 que l’on utilise dans cet article. Sur le modèle de ce que l’on a proposé dans un article précédent, on va comparer les instructions _if et _at d’un summarise groupé avec leurs équivalents dans across() pour différentes tailles d’échantillons et de groupes.

Le tibble utilisé a le format suivant, ici pour 100 lignes et deux groupes :

nbrow <- 100
nbgpe <- 2
as_tibble(data.frame(x1 = rnorm(nbrow), x2 =  rnorm(nbrow), 
                     x3 = runif(nbrow), x4 = runif(nbrow),
                     y = as.factor(sample(floor(nbgpe), replace = TRUE))
                               )) %>% 
  arrange(x1)
## # A tibble: 100 x 5
##       x1      x2     x3    x4 y    
##    <dbl>   <dbl>  <dbl> <dbl> <fct>
##  1 -2.60 -1.05   0.0108 0.921 2    
##  2 -2.11  0.0521 0.264  0.331 2    
##  3 -2.10  1.72   0.441  0.366 1    
##  4 -2.09 -1.47   0.762  0.580 2    
##  5 -1.83  0.867  0.420  0.265 1    
##  6 -1.62 -0.503  0.955  0.911 2    
##  7 -1.60  0.362  0.638  0.874 1    
##  8 -1.54  0.121  0.403  0.592 2    
##  9 -1.36 -0.503  0.259  0.959 2    
## 10 -1.34  2.05   0.565  0.230 2    
## # ... with 90 more rows
…
